"00","Status","041F",13,".",""
"00","Signal quality","0520",1,"",""
"00","Time","0101",6,"09:02:18:09:59:40",""
"00","GSM Cell","0507",2,"",""
"00","GSM Lac","0508",2,"",""
"00","Battery Voltage","0209",2,"",""
"00","Ambient Temperature","0207",2,"",""
"00","Firmware Version","0202",19,"",""
"00","Info 1","0410",16,"",""
"00","Alarm status","0421",2,"",""
"01","Index Meter 1","0901",4,"",""
"02","Index Meter 2","0901",4,"",""
"03","Index Meter 3","0901",4,"",""
"04","Index Meter 4","0901",4,"",""
"01","Meter 1 connected","0C15",1,"",""
"02","Meter 2 connected","0C15",1,"",""
"03","Meter 3 connected","0C15",1,"",""
"04","Meter 4 connected","0C15",1,"",""
"01","Ch. 1 Name","0C01",16,"",""
"02","Ch. 2 Name","0C01",16,"",""
"03","Ch. 3 Name","0C01",16,"",""
"04","Ch. 4 Name","0C01",16,"",""
"01","Ch. 1 Unit","0C09",19,"",""
"02","Ch. 2 Unit","0C09",19,"",""
"03","Ch. 3 Unit","0C09",19,"",""
"04","Ch. 4 Unit","0C09",19,"",""
"00","GPRS Server","0604",128,"",""
"00","GPRS Port","0605",19,"",""
"00","Modbus Type","0890",123,"0",""
"00","Modbus Type","0891",123,"0",""
"00","Modbus Type","0892",123,"0",""
"00","Modbus Type","0893",123,"0",""
"00","Modbus Type","0894",123,"0",""
"00","Modbus Type","0895",123,"0",""
"00","Modbus Type","0896",123,"0",""
"00","Modbus Type","0897",123,"0",""
"00","Modbus Type","0898",123,"0",""
"00","Modbus Type","0899",123,"0",""
"00","Modbus Type","089A",123,"0",""
"00","Modbus Type","089B",123,"0",""
"00","Modbus Value 1","0850",-123,"0",""
"00","Modbus Value 2","0851",-123,"0",""
"00","Modbus Value 3","0852",-123,"0",""
"00","Modbus Value 4","0853",-123,"0",""
"00","Modbus Value 5","0854",-123,"0",""
"00","Modbus Value 6","0855",-123,"0",""
"00","Modbus Value 7","0856",-123,"0",""
"00","Modbus Value 8","0857",-123,"0",""
"00","Modbus Value 9","0858",-123,"0",""
"00","Modbus Value 10","0859",-123,"0",""
"00","Modbus Value 11","085A",-123,"0",""
"00","MODBUS_ADD_ID","0810",1,"1",""
"00","MODBUS_BOUD_RATE_ID","0811",2,"19200",""
"00","MODBUS_EVEN_ID","0812",1,"1",""
"00","MODBUS_STOP_BIT_ID","0813",1,"0",""
"00","Sensor Value","08E0",44,"",""
"00","CALL_4_20mA_","08E1",44,"0.00023809",""
"00","K_4_20mA_","08E2",44,"12.50",""
"00","N_4_20mA_","08E3",44,"-150.0",""
"00","METER_ID","08E4",16,"",""
"00","Sensor Unit","08E6",16,"",""
"00","Name","08E5",16,"",""
"00","V Input Value","08EA",44,"",""
"00","CALL_V10_","08E9",44,"10000",""
"00","V Input Level","08EE",44,"8500",""
"00","METER_ID","08EB",16,"",""
"00","UNIT","08EF",16,"",""
"00","Name","08EC",16,"",""
"05","Z connected","0C15",1,"",""
"00","PS connected","020A",1,"",""