#,1,2,3,4,5,6,7,8,
#,group,android preference key,reg. Type,register num.,,value,description,encoded value,
#,Modbus setting,,,,,,,,
,,SHOW_MODBUS,,,,,,,
,,SHOW_MODBUS_SETTING,,,,,,,
,,MODB_SERIAL,21,00,0814,,Meter serial,,
,,MODB_ADD,1,00,0810,,Device address,,
,,MODB_BOUD,2,00,0811,,Baud rate,,
,,MODB_PARITY,1,00,0812,,Parity,,
,,MODB_STOP_BIT,1,00,0813,,Stop bits,,
,,,,,,,,,
#,Modbus register 1,,,,,,,,
,,SHOW_MODBUS_REG_1,,,,,,,
,,REG_ADD_1,2,00,0820,,Register address,,
,,REG_CMD_1,1,00,0840,,Command,, 
,,REG_FACTOR_1,2,00,0870,,Factor,, 
,,REG_FORMAT_USER_1,,,,,Format,,
,,REG_FORMAT_1,1,00,0890,,Converted format,,
,,REG_LOG_FORMAT_1,1,01,0C07,,Log format,,
,,REG_UNIT_1,9,00,0880,,Unit,,
,,REG_INFO_1,21,00,08A0,,Name,,
,,,,,,,,,
#,Modbus register 2,,,,,,,,
,,SHOW_MODBUS_REG_2,,,,,,,
,,REG_ADD_2,2,00,0821,,Register address,,
,,REG_CMD_2,1,00,0841,,Command,,
,,REG_FACTOR_2,2,00,0871,,Factor,,
,,REG_FORMAT_USER_2,,,,,Format,,
,,REG_FORMAT_2,1,00,0891,,Converted format,,
,,REG_LOG_FORMAT_2,1,02,0C07,,Log format,,
,,REG_UNIT_2,9,00,0881,,Unit,,
,,REG_INFO_2,21,00,08A1,,Name,,
,,,,,,,,,
#,Modbus register 3,,,,,,,,
,,SHOW_MODBUS_REG_3,,,,,,,
,,REG_ADD_3,2,00,0822,,Register address,,
,,REG_CMD_3,1,00,0842,,Command,,
,,REG_FACTOR_3,2,00,0872,,Factor,,
,,REG_FORMAT_USER_3,,,,,Format,,
,,REG_FORMAT_3,1,00,0892,,Converted format,,
,,REG_LOG_FORMAT_3,1,03,0C07,,Log format,,
,,REG_UNIT_3,9,00,0882,,Unit,,
,,REG_INFO_3,21,00,08A2,,Name,,
,,,,,,,,,
#,Modbus register 4,,,,,,,,
,,SHOW_MODBUS_REG_4,,,,,,,
,,REG_ADD_4,2,00,0823,,Register address,,
,,REG_CMD_4,1,00,0843,,Command,,
,,REG_FACTOR_4,2,00,0873,,Factor,,
,,REG_FORMAT_USER_4,,,,,Format,,
,,REG_FORMAT_4,1,00,0893,,Converted format,,
,,REG_LOG_FORMAT_4,1,04,0C07,,Log format,,
,,REG_UNIT_4,9,00,0883,,Unit,,
,,REG_INFO_4,21,00,08A3,,Name,,
,,,,,,,,,
#,Modbus register 5,,,,,,,,
,,SHOW_MODBUS_REG_5,,,,,,,
,,REG_ADD_5,2,00,0824,,Register address,,
,,REG_CMD_5,1,00,0844,,Command,,
,,REG_FACTOR_5,2,00,0874,,Factor,,
,,REG_FORMAT_USER_5,,,,,Format,,
,,REG_FORMAT_5,1,00,0894,,Converted format,,
,,REG_LOG_FORMAT_5,1,05,0C07,,Log format,,
,,REG_UNIT_5,9,00,0884,,Unit,,
,,REG_INFO_5,21,00,08A4,,Name,,
,,,,,,,,,
#,Modbus register 6,,,,,,,,
,,SHOW_MODBUS_REG_6,,,,,,,
,,REG_ADD_6,2,00,0825,,Register address,,
,,REG_CMD_6,1,00,0845,,Command,,
,,REG_FACTOR_6,2,00,0875,,Factor,,
,,REG_FORMAT_USER_6,,,,,Format,,
,,REG_FORMAT_6,1,00,0895,,Converted format,,
,,REG_LOG_FORMAT_6,1,06,0C07,,Log format,,
,,REG_UNIT_6,9,00,0885,,Unit,,
,,REG_INFO_6,21,00,08A5,,Name,,
,,,,,,,,,
#,Modbus register 7,,,,,,,,
,,SHOW_MODBUS_REG_7,,,,,,,
,,REG_ADD_7,2,00,0826,,Register address,,
,,REG_CMD_7,1,00,0846,,Command,,
,,REG_FACTOR_7,2,00,0876,,Factor,,
,,REG_FORMAT_USER_7,,,,,Format,,
,,REG_FORMAT_7,1,00,0896,,Converted format,,
,,REG_LOG_FORMAT_7,1,07,0C07,,Log format,,
,,REG_UNIT_7,9,00,0886,,Unit,,
,,REG_INFO_7,21,00,08A6,,Name,,
,,,,,,,,,
#,Modbus register 8,,,,,,,,
,,SHOW_MODBUS_REG_8,,,,,,,
,,REG_ADD_8,2,00,0827,,Register address,,
,,REG_CMD_8,1,00,0847,,Command,,
,,REG_FACTOR_8,2,00,0877,,Factor,,
,,REG_FORMAT_USER_8,,,,,Format,,
,,REG_FORMAT_8,1,00,0897,,Converted format,,
,,REG_UNIT_8,9,00,0887,,Unit,,
,,REG_INFO_8,21,00,08A7,,Name,,
,,,,,,,,,
#,Modbus register 9,,,,,,,,
,,SHOW_MODBUS_REG_9,,,,,,,
,,REG_ADD_9,2,00,0828,,Register address,,
,,REG_CMD_9,1,00,0848,,Command,,
,,REG_FACTOR_9,2,00,0878,,Factor,,
,,REG_FORMAT_USER_9,,,,,Format,,
,,REG_FORMAT_9,1,00,0898,,Converted format,,
,,REG_UNIT_9,9,00,0888,,Unit,,
,,REG_INFO_9,21,00,08A8,,Name,,
,,,,,,,,,
#,4_20mA,,,,,,,,
,,SHOW_SENSOR_INPUT,,,,,,,
,,20_MA,44,00,08E2,,URL,,
,,4_MA,44,00,08E3,,LRL,,
,,REG_SERIAL,21,00,08E4,,Serial,,
,,REG_INFO,21,00,08E5,,Name,,
,,REG_UNIT,9,00,08E6,,Unit,,
,,,,,,,,,
#,Z Input,,,,,,,,
,,SHOW_Z_INPUT,,,,,,,
,,Z_NAME,21,05,0C01,,Name,,
,,Z_DELAY,1,05,0C11,,Delay,,
,,,,,,,,,
#,V Input,,,,,,,,
,,SHOW_V_INPUT,,,,,,,
,,V_NAME,21,00,08EC,,Name,,
,,V_FACTOR,44,00,08ED,,Factor,,
,,V_LEVEL,44,00,08EE,,Level,,
,,,,,,,,,
#,Alarm,,,,,,,,
,,ALARM_MASK_E4,2,00,0420,0,Alarm mask,,
,,ALARM_MODE,2,00,0422,65535,"Alarm mode: 0=Single 1=Continuous",,
,,,,,,,,,
#,Schedule,,,,,,,,
,,SCH_ACTIVATE,1,00,0705,1,Activate schedule,,
,,,,,,,,,
#,ModBus Activate,,,,,,,,
,,ModBus Activate,,,,,,,
,,Act_1,1,00,0860,"1",constant,,
,,Act_2,1,00,0861,"1",constant,,
,,Act_3,1,00,0862,"1",constant,,
,,Act_4,1,00,0863,"1",constant,,
,,Act_5,1,00,0864,"1",constant,,
,,Act_6,1,00,0865,"1",constant,,
,,Act_7,1,00,0866,"1",constant,,
,,Act_8,1,00,0867,"1",constant,,
,,Act_9,1,00,0868,"1",constant,,
