00,0101,"Date & time    "
00,0209,"Battery voltage"
00,0202,"FW version     "
00,0421,"Alarm status   "
01,0901,"M1 Raw index   "
01,0C15,"M1 connected   "
02,0901,"M2 Raw index   "
02,0C15,"M2 connected   "
03,0901,"M3 Raw index   "
03,0C15,"M3 connected   "
04,0901,"M4 Raw index   "
04,0C15,"M4 connected   "
00,0890,"Mdbs type      "
00,0850,"Modbus 1       "
00,0891,"Mdbs type      "
00,0851,"Modbus 2       "
00,0892,"Mdbs type      "
00,0852,"Modbus 3       "
00,0893,"Mdbs type      "
00,0853,"Modbus 4       "
00,0894,"Mdbs type      "
00,0854,"Modbus 5       "
00,0895,"Mdbs type      "
00,0855,"Modbus 6       "
00,0896,"Mdbs type      "
00,0856,"Modbus 7       "
00,0897,"Mdbs type      "
00,0857,"Modbus 8       "
00,0898,"Mdbs type      "
00,0858,"Modbus 9       "

00,08E0,"Sensor Value   "
00,08E6,"Sensor Unit    "
00,08EA,"V value        "
05,0C15,"Z connected    "
00,020A,"PS connected   "